﻿Name,Department,Start Date,End Date,Sales January,Sales February,Sales March
Sally,A,01/02/2017,NaN,31000,30000,32000
Antonio,A,23/06/2018,NaN,46000,48000,49000
Rebecca,A,22/02/2019,27/03/2019,NaN,8000,10000
Ali,B,15/05/2017,NaN,28000,29000,25000
Sam,B,01/02/2011,NaN,38000,26000,31000
Viknesh,C,25/01/2019,NaN,2000,25000,29000
Jon,C,14/08/2012,16/10/2012,NaN,NaN,NaN
Sarah,C,17/05/2018,NaN,41000,26000,30000
Sierra,C,31/03/2017,NaN,33000,35000,32000
